<?xml version="1.0" encoding="UTF-8" standalone="no"?>
<svg
   xmlns:osb="http://www.openswatchbook.org/uri/2009/osb"
   xmlns:dc="http://purl.org/dc/elements/1.1/"
   xmlns:cc="http://creativecommons.org/ns#"
   xmlns:rdf="http://www.w3.org/1999/02/22-rdf-syntax-ns#"
   xmlns:svg="http://www.w3.org/2000/svg"
   xmlns="http://www.w3.org/2000/svg"
   xmlns:sodipodi="http://sodipodi.sourceforge.net/DTD/sodipodi-0.dtd"
   xmlns:inkscape="http://www.inkscape.org/namespaces/inkscape"
   width="328.82291mm"
   height="189.5193mm"
   viewBox="0 0 328.82291 189.5193"
   version="1.1"
   id="svg8"
   sodipodi:docname="overview.svg"
   inkscape:version="1.0.1 (3bc2e813f5, 2020-09-07)"
   inkscape:export-filename="/home/fred/Projects/thesis/images/overview.png"
   inkscape:export-xdpi="600"
   inkscape:export-ydpi="600">
  <defs
     id="defs2">
    <marker
       style="overflow:visible"
       id="marker1291"
       refX="0"
       refY="0"
       orient="auto"
       inkscape:stockid="Arrow1Lend"
       inkscape:isstock="true">
      <path
         transform="matrix(-0.8,0,0,-0.8,-10,0)"
         style="fill:#000000;fill-opacity:1;fill-rule:evenodd;stroke:#000000;stroke-width:1pt;stroke-opacity:1"
         d="M 0,0 5,-5 -12.5,0 5,5 Z"
         id="path1289" />
    </marker>
    <inkscape:path-effect
       effect="bspline"
       id="path-effect1287"
       is_visible="true"
       lpeversion="1"
       weight="33.333333"
       steps="2"
       helper_size="0"
       apply_no_weight="true"
       apply_with_weight="true"
       only_selected="false" />
    <inkscape:path-effect
       effect="powerstroke"
       id="path-effect1279"
       is_visible="true"
       lpeversion="1"
       offset_points="0,0.1322915"
       sort_points="true"
       interpolator_type="CubicBezierJohan"
       interpolator_beta="0.2"
       start_linecap_type="zerowidth"
       linejoin_type="extrp_arc"
       miter_limit="4"
       scale_width="1"
       end_linecap_type="zerowidth" />
    <inkscape:path-effect
       effect="bspline"
       id="path-effect1277"
       is_visible="true"
       lpeversion="1"
       weight="33.333333"
       steps="2"
       helper_size="0"
       apply_no_weight="true"
       apply_with_weight="true"
       only_selected="false" />
    <inkscape:path-effect
       effect="powerstroke"
       id="path-effect1273"
       is_visible="true"
       lpeversion="1"
       offset_points="0,0.1322915"
       sort_points="true"
       interpolator_type="CubicBezierJohan"
       interpolator_beta="0.2"
       start_linecap_type="zerowidth"
       linejoin_type="extrp_arc"
       miter_limit="4"
       scale_width="1"
       end_linecap_type="zerowidth" />
    <inkscape:path-effect
       effect="powerstroke"
       id="path-effect1269"
       is_visible="true"
       lpeversion="1"
       offset_points="0,0.1322915"
       sort_points="true"
       interpolator_type="CubicBezierJohan"
       interpolator_beta="0.2"
       start_linecap_type="zerowidth"
       linejoin_type="extrp_arc"
       miter_limit="4"
       scale_width="1"
       end_linecap_type="zerowidth" />
    <linearGradient
       id="linearGradient2993"
       osb:paint="solid">
      <stop
         style="stop-color:#000000;stop-opacity:1;"
         offset="0"
         id="stop2991" />
    </linearGradient>
    <marker
       style="overflow:visible"
       id="marker2516"
       refX="0"
       refY="0"
       orient="auto"
       inkscape:stockid="Arrow1Lend"
       inkscape:isstock="true">
      <path
         transform="matrix(-0.8,0,0,-0.8,-10,0)"
         style="fill:#000000;fill-opacity:1;fill-rule:evenodd;stroke:#000000;stroke-width:1pt;stroke-opacity:1"
         d="M 0,0 5,-5 -12.5,0 5,5 Z"
         id="path2514" />
    </marker>
    <marker
       style="overflow:visible"
       id="marker2506"
       refX="0"
       refY="0"
       orient="auto"
       inkscape:stockid="Arrow1Lend"
       inkscape:isstock="true"
       inkscape:collect="always">
      <path
         transform="matrix(-0.8,0,0,-0.8,-10,0)"
         style="fill:#000000;fill-opacity:1;fill-rule:evenodd;stroke:#000000;stroke-width:1pt;stroke-opacity:1"
         d="M 0,0 5,-5 -12.5,0 5,5 Z"
         id="path2504" />
    </marker>
    <marker
       style="overflow:visible"
       id="marker2496"
       refX="0"
       refY="0"
       orient="auto"
       inkscape:stockid="Arrow1Lend"
       inkscape:isstock="true">
      <path
         transform="matrix(-0.8,0,0,-0.8,-10,0)"
         style="fill:#000000;fill-opacity:1;fill-rule:evenodd;stroke:#000000;stroke-width:1pt;stroke-opacity:1"
         d="M 0,0 5,-5 -12.5,0 5,5 Z"
         id="path2494" />
    </marker>
    <inkscape:path-effect
       effect="bspline"
       id="path-effect1496"
       is_visible="true"
       lpeversion="1"
       weight="33.333333"
       steps="2"
       helper_size="0"
       apply_no_weight="true"
       apply_with_weight="true"
       only_selected="false" />
    <marker
       style="overflow:visible"
       id="marker1444"
       refX="0"
       refY="0"
       orient="auto"
       inkscape:stockid="Arrow1Lend"
       inkscape:isstock="true">
      <path
         transform="matrix(-0.8,0,0,-0.8,-10,0)"
         style="fill:#000000;fill-opacity:1;fill-rule:evenodd;stroke:#000000;stroke-width:1pt;stroke-opacity:1"
         d="M 0,0 5,-5 -12.5,0 5,5 Z"
         id="path1442" />
    </marker>
    <inkscape:path-effect
       effect="bspline"
       id="path-effect1440"
       is_visible="true"
       lpeversion="1"
       weight="33.333333"
       steps="2"
       helper_size="0"
       apply_no_weight="true"
       apply_with_weight="true"
       only_selected="false" />
    <inkscape:path-effect
       effect="bspline"
       id="path-effect1436"
       is_visible="true"
       lpeversion="1"
       weight="33.333333"
       steps="2"
       helper_size="0"
       apply_no_weight="true"
       apply_with_weight="true"
       only_selected="false" />
    <inkscape:path-effect
       effect="bspline"
       id="path-effect1432"
       is_visible="true"
       lpeversion="1"
       weight="33.333333"
       steps="2"
       helper_size="0"
       apply_no_weight="true"
       apply_with_weight="true"
       only_selected="false" />
    <inkscape:path-effect
       effect="bspline"
       id="path-effect1428"
       is_visible="true"
       lpeversion="1"
       weight="33.333333"
       steps="2"
       helper_size="0"
       apply_no_weight="true"
       apply_with_weight="true"
       only_selected="false" />
    <inkscape:path-effect
       effect="bspline"
       id="path-effect1352"
       is_visible="true"
       lpeversion="1"
       weight="33.333333"
       steps="2"
       helper_size="0"
       apply_no_weight="true"
       apply_with_weight="true"
       only_selected="false" />
    <inkscape:path-effect
       effect="bspline"
       id="path-effect1348"
       is_visible="true"
       lpeversion="1"
       weight="33.333333"
       steps="2"
       helper_size="0"
       apply_no_weight="true"
       apply_with_weight="true"
       only_selected="false" />
    <inkscape:path-effect
       effect="powerstroke"
       id="path-effect1344"
       is_visible="true"
       lpeversion="1"
       offset_points="0,0.1322915"
       sort_points="true"
       interpolator_type="CubicBezierJohan"
       interpolator_beta="0.2"
       start_linecap_type="zerowidth"
       linejoin_type="extrp_arc"
       miter_limit="4"
       scale_width="1"
       end_linecap_type="zerowidth" />
    <marker
       style="overflow:visible"
       id="Arrow1Lend-9"
       refX="0"
       refY="0"
       orient="auto"
       inkscape:stockid="Arrow1Lend"
       inkscape:isstock="true">
      <path
         transform="matrix(-0.8,0,0,-0.8,-10,0)"
         style="fill:#000000;fill-opacity:1;fill-rule:evenodd;stroke:#000000;stroke-width:1pt;stroke-opacity:1"
         d="M 0,0 5,-5 -12.5,0 5,5 Z"
         id="path1764-7" />
    </marker>
    <marker
       style="overflow:visible"
       id="marker2196-3"
       refX="0"
       refY="0"
       orient="auto"
       inkscape:stockid="Arrow1Lend"
       inkscape:isstock="true">
      <path
         transform="matrix(-0.8,0,0,-0.8,-10,0)"
         style="fill:#000000;fill-opacity:1;fill-rule:evenodd;stroke:#000000;stroke-width:1pt;stroke-opacity:1"
         d="M 0,0 5,-5 -12.5,0 5,5 Z"
         id="path2194-0" />
    </marker>
    <marker
       style="overflow:visible"
       id="marker2196-3-2"
       refX="0"
       refY="0"
       orient="auto"
       inkscape:stockid="Arrow1Lend"
       inkscape:isstock="true">
      <path
         transform="matrix(-0.8,0,0,-0.8,-10,0)"
         style="fill:#000000;fill-opacity:1;fill-rule:evenodd;stroke:#000000;stroke-width:1pt;stroke-opacity:1"
         d="M 0,0 5,-5 -12.5,0 5,5 Z"
         id="path2194-0-5" />
    </marker>
    <marker
       style="overflow:visible"
       id="marker2196-0"
       refX="0"
       refY="0"
       orient="auto"
       inkscape:stockid="Arrow1Lend"
       inkscape:isstock="true">
      <path
         transform="matrix(-0.8,0,0,-0.8,-10,0)"
         style="fill:#000000;fill-opacity:1;fill-rule:evenodd;stroke:#000000;stroke-width:1pt;stroke-opacity:1"
         d="M 0,0 5,-5 -12.5,0 5,5 Z"
         id="path2194-5" />
    </marker>
    <marker
       style="overflow:visible"
       id="marker2196-3-8"
       refX="0"
       refY="0"
       orient="auto"
       inkscape:stockid="Arrow1Lend"
       inkscape:isstock="true">
      <path
         transform="matrix(-0.8,0,0,-0.8,-10,0)"
         style="fill:#000000;fill-opacity:1;fill-rule:evenodd;stroke:#000000;stroke-width:1pt;stroke-opacity:1"
         d="M 0,0 5,-5 -12.5,0 5,5 Z"
         id="path2194-0-56" />
    </marker>
    <marker
       style="overflow:visible"
       id="marker2506-5"
       refX="0"
       refY="0"
       orient="auto"
       inkscape:stockid="Arrow1Lend"
       inkscape:isstock="true">
      <path
         transform="matrix(-0.8,0,0,-0.8,-10,0)"
         style="fill:#000000;fill-opacity:1;fill-rule:evenodd;stroke:#000000;stroke-width:1pt;stroke-opacity:1"
         d="M 0,0 5,-5 -12.5,0 5,5 Z"
         id="path2504-6" />
    </marker>
  </defs>
  <sodipodi:namedview
     id="base"
     pagecolor="#ffffff"
     bordercolor="#666666"
     borderopacity="1.0"
     inkscape:pageopacity="0.0"
     inkscape:pageshadow="2"
     inkscape:zoom="0.95836395"
     inkscape:cx="179.60139"
     inkscape:cy="674.89911"
     inkscape:document-units="mm"
     inkscape:current-layer="layer1"
     inkscape:document-rotation="0"
     showgrid="false"
     showguides="false"
     inkscape:window-width="2550"
     inkscape:window-height="1409"
     inkscape:window-x="0"
     inkscape:window-y="0"
     inkscape:window-maximized="1"
     fit-margin-top="0"
     fit-margin-left="0"
     fit-margin-right="0"
     fit-margin-bottom="0" />
  <metadata
     id="metadata5">
    <rdf:RDF>
      <cc:Work
         rdf:about="">
        <dc:format>image/svg+xml</dc:format>
        <dc:type
           rdf:resource="http://purl.org/dc/dcmitype/StillImage" />
        <dc:title></dc:title>
      </cc:Work>
    </rdf:RDF>
  </metadata>
  <g
     inkscape:label="Layer 1"
     inkscape:groupmode="layer"
     id="layer1"
     transform="translate(-109.78069,-66.061174)">
    <path
       id="path887"
       style="opacity:0.774278;fill:#f0e442;fill-opacity:1;stroke:#000000;stroke-width:0.5;stroke-miterlimit:4;stroke-dasharray:none;stroke-dashoffset:0"
       inkscape:transform-center-x="2.0345761e-06"
       d="m 222.05538,119.39593 h -23.61087 l 9.58815,-15.20396 -9.58815,-15.203959 23.61087,10e-7 8.77806,15.203958 z"
       sodipodi:nodetypes="ccccccc" />
    <text
       xml:space="preserve"
       style="font-size:6.35px;line-height:1.25;font-family:'PT Mono';-inkscape-font-specification:'PT Mono, Normal';word-spacing:0px;stroke-width:0.264583"
       x="22.285006"
       y="28.570557"
       id="text1641"><tspan
         sodipodi:role="line"
         x="22.285006"
         y="28.570557"
         style="stroke-width:0.264583"
         id="tspan1643" /></text>
    <text
       xml:space="preserve"
       style="font-size:6.35px;line-height:1.25;font-family:'PT Mono';-inkscape-font-specification:'PT Mono, Normal';word-spacing:0px;stroke-width:0.264583"
       x="17.748251"
       y="31.505608"
       id="text1649"><tspan
         sodipodi:role="line"
         id="tspan1647"
         x="17.748251"
         y="31.505608"
         style="stroke-width:0.264583" /></text>
    <rect
       style="opacity:0.80315;fill:#009e73;fill-opacity:1;stroke:#000000;stroke-width:0.5;stroke-miterlimit:4;stroke-dasharray:none;stroke-dashoffset:0;stroke-opacity:1"
       id="rect833"
       width="27.066631"
       height="18.920139"
       x="163.20604"
       y="77.373138" />
    <rect
       style="opacity:0.80315;fill:#009e73;fill-opacity:1;stroke:#000000;stroke-width:0.5;stroke-miterlimit:4;stroke-dasharray:none;stroke-dashoffset:0;stroke-opacity:1"
       id="rect833-1"
       width="27.066631"
       height="18.920139"
       x="163.20604"
       y="110.43667" />
    <text
       xml:space="preserve"
       style="font-size:6.35px;line-height:1.25;font-family:'PT Mono';-inkscape-font-specification:'PT Mono, Normal';word-spacing:0px;stroke-width:0.264583"
       x="95.156891"
       y="31.380388"
       id="text1661"><tspan
         sodipodi:role="line"
         x="95.156891"
         y="31.380388"
         style="stroke-width:0.264583"
         id="tspan1663" /></text>
    <path
       id="path2805-9"
       style="opacity:1;fill:#f0e442;fill-opacity:1;stroke:#000000;stroke-width:0.5;stroke-miterlimit:4;stroke-dasharray:none;stroke-dashoffset:0;stroke-opacity:1"
       inkscape:transform-center-x="-0.0026099546"
       inkscape:transform-center-y="5.4425486"
       d="m 353.17175,136.75522 16.9242,27.86176 v 18.9008 l 5.86034,-4.10413 v -14.81783 l 16.9242,-27.83214 z"
       sodipodi:nodetypes="ccccccc" />
    <rect
       style="fill:#ffffff;fill-opacity:1;stroke:#000000;stroke-width:0.5;stroke-miterlimit:4;stroke-dasharray:none;stroke-dashoffset:0;stroke-opacity:1;paint-order:normal"
       id="rect2934-8"
       width="69.78125"
       height="7.3935804"
       x="338.13556"
       y="156.55481" />
    <text
       xml:space="preserve"
       style="font-size:8.17761px;line-height:1.25;font-family:'PT Mono';-inkscape-font-specification:'PT Mono, Normal';word-spacing:0px;mix-blend-mode:normal;fill:#000000;fill-opacity:1;stroke:none;stroke-width:0.5;stroke-miterlimit:4;stroke-dasharray:none;stroke-opacity:1;paint-order:normal"
       x="340.48337"
       y="162.46184"
       id="text1695-4-7-8-1"><tspan
         sodipodi:role="line"
         x="340.48337"
         y="162.46184"
         style="font-style:normal;font-variant:normal;font-weight:normal;font-stretch:normal;font-size:6.36038px;font-family:'PT Mono';-inkscape-font-specification:'PT Mono, Normal';font-variant-ligatures:normal;font-variant-caps:normal;font-variant-numeric:normal;font-variant-east-asian:normal;fill:#000000;fill-opacity:1;stroke:none;stroke-width:0.5;stroke-miterlimit:4;stroke-dasharray:none;stroke-opacity:1;paint-order:normal"
         id="tspan2188-5-9-0">Filter of Matches</tspan></text>
    <text
       xml:space="preserve"
       style="font-style:normal;font-variant:normal;font-weight:normal;font-stretch:normal;font-size:8.46667px;line-height:1.25;font-family:'PT Mono';-inkscape-font-specification:'PT Mono, Normal';font-variant-ligatures:normal;font-variant-caps:normal;font-variant-numeric:normal;font-variant-east-asian:normal;word-spacing:0px;stroke-width:0.5;stroke-miterlimit:4;stroke-dasharray:none"
       x="137.83025"
       y="89.745743"
       id="text1223"><tspan
         sodipodi:role="line"
         x="137.83025"
         y="89.745743"
         style="font-style:normal;font-variant:normal;font-weight:normal;font-stretch:normal;font-size:8.46667px;font-family:'PT Mono';-inkscape-font-specification:'PT Mono, Normal';font-variant-ligatures:normal;font-variant-caps:normal;font-variant-numeric:normal;font-variant-east-asian:normal;stroke-width:0.5;stroke-miterlimit:4;stroke-dasharray:none"
         id="tspan1225">Fork</tspan></text>
    <text
       xml:space="preserve"
       style="font-style:normal;font-variant:normal;font-weight:normal;font-stretch:normal;font-size:8.46667px;line-height:1.25;font-family:'PT Mono';-inkscape-font-specification:'PT Mono, Normal';font-variant-ligatures:normal;font-variant-caps:normal;font-variant-numeric:normal;font-variant-east-asian:normal;word-spacing:0px;stroke-width:0.5;stroke-miterlimit:4;stroke-dasharray:none"
       x="138.04076"
       y="122.84314"
       id="text1231"><tspan
         sodipodi:role="line"
         x="138.04076"
         y="122.84314"
         style="font-style:normal;font-variant:normal;font-weight:normal;font-stretch:normal;font-size:8.46667px;font-family:'PT Mono';-inkscape-font-specification:'PT Mono, Normal';font-variant-ligatures:normal;font-variant-caps:normal;font-variant-numeric:normal;font-variant-east-asian:normal;stroke-width:0.5;stroke-miterlimit:4;stroke-dasharray:none"
         id="tspan1233">Base</tspan></text>
    <path
       id="path887-6"
       style="opacity:0.774278;fill:#f0e442;fill-opacity:1;stroke:#000000;stroke-width:0.5;stroke-miterlimit:4;stroke-dasharray:none;stroke-dashoffset:0"
       inkscape:transform-center-x="2.0345761e-06"
       d="m 260.01884,119.39593 h -23.61087 l 9.58815,-15.20396 -9.58815,-15.203958 23.61087,10e-7 8.77806,15.203957 z"
       sodipodi:nodetypes="ccccccc" />
    <path
       id="path887-6-1"
       style="opacity:0.774278;fill:#f0e442;fill-opacity:1;stroke:#000000;stroke-width:0.5;stroke-miterlimit:4;stroke-dasharray:none;stroke-dashoffset:0"
       inkscape:transform-center-x="2.0345761e-06"
       d="m 297.9823,119.39593 h -23.61087 l 9.58815,-15.20396 -9.58815,-15.203957 23.61087,1e-6 8.77805,15.203956 z"
       sodipodi:nodetypes="ccccccc" />
    <path
       id="path887-6-5"
       style="opacity:0.774278;fill:#f0e442;fill-opacity:1;stroke:#000000;stroke-width:0.5;stroke-miterlimit:4;stroke-dasharray:none;stroke-dashoffset:0"
       inkscape:transform-center-x="2.0345761e-06"
       d="m 335.94574,119.39593 h -23.61087 l 9.58815,-15.20396 -9.58815,-15.203958 23.61087,10e-7 8.77806,15.203957 z"
       sodipodi:nodetypes="ccccccc" />
    <circle
       style="fill:#009e73;fill-opacity:1;stroke:#000000;stroke-width:0.5;stroke-linecap:round;stroke-miterlimit:4;stroke-dasharray:none;stroke-dashoffset:0;stroke-opacity:1"
       id="path1570"
       cx="373.02615"
       cy="104.19197"
       r="23" />
    <path
       id="path887-6-1-6"
       style="opacity:0.774278;fill:#f0e442;fill-opacity:1;stroke:#000000;stroke-width:0.5;stroke-miterlimit:4;stroke-dasharray:none;stroke-dashoffset:0"
       inkscape:transform-center-x="6.8824768e-06"
       d="m 301.93256,186.39415 h 53.19053 l -7.75727,8.33004 7.75727,8.33004 h -53.19053 l -7.43017,-8.33004 z"
       sodipodi:nodetypes="ccccccc"
       inkscape:transform-center-y="2.8365121e-06" />
    <path
       id="path887-6-1-6-7"
       style="opacity:0.774278;fill:#f0e442;fill-opacity:1;stroke:#000000;stroke-width:0.5;stroke-miterlimit:4;stroke-dasharray:none;stroke-dashoffset:0"
       inkscape:transform-center-x="6.8824768e-06"
       d="m 249.46143,208.32476 h 105.66263 l -7.75727,8.33004 7.75727,8.33004 H 249.46143 l -7.43017,-8.33004 z"
       sodipodi:nodetypes="ccccccc"
       inkscape:transform-center-y="2.8365121e-06" />
    <text
       xml:space="preserve"
       style="font-style:normal;font-variant:normal;font-weight:normal;font-stretch:normal;font-size:9.87778px;line-height:1.25;font-family:'PT Mono';-inkscape-font-specification:'PT Mono, Normal';font-variant-ligatures:normal;font-variant-caps:normal;font-variant-numeric:normal;font-variant-east-asian:normal;word-spacing:0px;mix-blend-mode:normal;fill:#000000;fill-opacity:1;stroke:none;stroke-width:0.5;stroke-miterlimit:4;stroke-dasharray:none;stroke-opacity:1;paint-order:normal"
       x="379.91983"
       y="220.08733"
       id="text1695-4-7-8-3-8"><tspan
         sodipodi:role="line"
         x="379.91983"
         y="220.08733"
         style="font-style:normal;font-variant:normal;font-weight:normal;font-stretch:normal;font-size:9.87778px;font-family:'PT Mono';-inkscape-font-specification:'PT Mono, Normal';font-variant-ligatures:normal;font-variant-caps:normal;font-variant-numeric:normal;font-variant-east-asian:normal;fill:#000000;fill-opacity:1;stroke:none;stroke-width:0.5;stroke-miterlimit:4;stroke-dasharray:none;stroke-opacity:1;paint-order:normal"
         id="tspan2188-5-9-6-0">Blocks</tspan></text>
    <path
       id="path887-6-1-6-3"
       style="opacity:0.774278;fill:#f0e442;fill-opacity:1;stroke:#000000;stroke-width:0.5;stroke-miterlimit:4;stroke-dasharray:none;stroke-dashoffset:0"
       inkscape:transform-center-x="6.8824768e-06"
       d="m 301.93256,230.25536 h 53.19053 l -7.96433,8.33004 7.96433,8.33004 h -53.19053 l -7.43017,-8.33004 z"
       sodipodi:nodetypes="ccccccc"
       inkscape:transform-center-y="2.8365121e-06" />
    <text
       xml:space="preserve"
       style="font-style:normal;font-variant:normal;font-weight:normal;font-stretch:normal;font-size:9.87778px;line-height:1.25;font-family:'PT Mono';-inkscape-font-specification:'PT Mono, Normal';font-variant-ligatures:normal;font-variant-caps:normal;font-variant-numeric:normal;font-variant-east-asian:normal;word-spacing:0px;mix-blend-mode:normal;fill:#000000;fill-opacity:1;stroke:none;stroke-width:0.5;stroke-miterlimit:4;stroke-dasharray:none;stroke-opacity:1;paint-order:normal"
       x="380.74957"
       y="241.97842"
       id="text1695-4-7-8-3-8-9"><tspan
         sodipodi:role="line"
         x="380.74957"
         y="241.97842"
         style="font-style:normal;font-variant:normal;font-weight:normal;font-stretch:normal;font-size:9.87778px;font-family:'PT Mono';-inkscape-font-specification:'PT Mono, Normal';font-variant-ligatures:normal;font-variant-caps:normal;font-variant-numeric:normal;font-variant-east-asian:normal;fill:#000000;fill-opacity:1;stroke:none;stroke-width:0.5;stroke-miterlimit:4;stroke-dasharray:none;stroke-opacity:1;paint-order:normal"
         id="tspan2939">All</tspan></text>
    <path
       id="path887-6-1-6-9"
       style="opacity:0.774278;fill:#f0e442;fill-opacity:1;stroke:#000000;stroke-width:0.5;stroke-miterlimit:4;stroke-dasharray:none;stroke-dashoffset:0"
       inkscape:transform-center-x="6.8824768e-06"
       d="m 249.43222,186.39415 h 48.8423 l -7.75727,8.33004 7.75727,8.33004 h -48.8423 l -7.43017,-8.33004 z"
       sodipodi:nodetypes="ccccccc"
       inkscape:transform-center-y="2.8365121e-06" />
    <text
       xml:space="preserve"
       style="font-style:normal;font-variant:normal;font-weight:normal;font-stretch:normal;font-size:5.64444px;line-height:1.25;font-family:'PT Mono';-inkscape-font-specification:'PT Mono, Normal';font-variant-ligatures:normal;font-variant-caps:normal;font-variant-numeric:normal;font-variant-east-asian:normal;word-spacing:0px;mix-blend-mode:normal;fill:#000000;fill-opacity:1;stroke:none;stroke-width:0.5;stroke-miterlimit:4;stroke-dasharray:none;stroke-opacity:1;paint-order:normal"
       x="250.08032"
       y="192.6301"
       id="text1695-4-7-8-3-4"><tspan
         sodipodi:role="line"
         x="250.08032"
         y="192.6301"
         style="font-style:normal;font-variant:normal;font-weight:normal;font-stretch:normal;font-size:5.64444px;font-family:'PT Mono';-inkscape-font-specification:'PT Mono, Normal';font-variant-ligatures:normal;font-variant-caps:normal;font-variant-numeric:normal;font-variant-east-asian:normal;fill:#000000;fill-opacity:1;stroke:none;stroke-width:0.5;stroke-miterlimit:4;stroke-dasharray:none;stroke-opacity:1;paint-order:normal"
         id="tspan2188-5-9-6-8">Maximum</tspan><tspan
         sodipodi:role="line"
         x="250.08032"
         y="199.68565"
         style="font-style:normal;font-variant:normal;font-weight:normal;font-stretch:normal;font-size:5.64444px;font-family:'PT Mono';-inkscape-font-specification:'PT Mono, Normal';font-variant-ligatures:normal;font-variant-caps:normal;font-variant-numeric:normal;font-variant-east-asian:normal;fill:#000000;fill-opacity:1;stroke:none;stroke-width:0.5;stroke-miterlimit:4;stroke-dasharray:none;stroke-opacity:1;paint-order:normal"
         id="tspan2482">Sequences</tspan></text>
    <path
       id="path887-6-1-6-3-8"
       style="opacity:0.774278;fill:#f0e442;fill-opacity:1;stroke:#000000;stroke-width:0.5;stroke-miterlimit:4;stroke-dasharray:none;stroke-dashoffset:0"
       inkscape:transform-center-x="6.8824768e-06"
       d="m 195.12712,230.25536 h 103.1474 l -7.96433,8.33004 7.96433,8.33004 h -103.1474 l -7.43017,-8.33004 z"
       sodipodi:nodetypes="ccccccc"
       inkscape:transform-center-y="2.8365121e-06" />
    <text
       xml:space="preserve"
       style="font-style:normal;font-variant:normal;font-weight:normal;font-stretch:normal;font-size:5.64444px;line-height:1.25;font-family:'PT Mono';-inkscape-font-specification:'PT Mono, Normal';font-variant-ligatures:normal;font-variant-caps:normal;font-variant-numeric:normal;font-variant-east-asian:normal;word-spacing:0px;mix-blend-mode:normal;fill:#000000;fill-opacity:1;stroke:none;stroke-width:0.5;stroke-miterlimit:4;stroke-dasharray:none;stroke-opacity:1;paint-order:normal"
       x="195.51933"
       y="237.01907"
       id="text1695-4-7-8-3-8-9-8"><tspan
         sodipodi:role="line"
         x="195.51933"
         y="237.01907"
         style="font-style:normal;font-variant:normal;font-weight:normal;font-stretch:normal;font-size:5.64444px;font-family:'PT Mono';-inkscape-font-specification:'PT Mono, Normal';font-variant-ligatures:normal;font-variant-caps:normal;font-variant-numeric:normal;font-variant-east-asian:normal;fill:#000000;fill-opacity:1;stroke:none;stroke-width:0.5;stroke-miterlimit:4;stroke-dasharray:none;stroke-opacity:1;paint-order:normal"
         id="tspan2939-5">Filter on</tspan><tspan
         sodipodi:role="line"
         x="195.51933"
         y="244.07463"
         style="font-style:normal;font-variant:normal;font-weight:normal;font-stretch:normal;font-size:5.64444px;font-family:'PT Mono';-inkscape-font-specification:'PT Mono, Normal';font-variant-ligatures:normal;font-variant-caps:normal;font-variant-numeric:normal;font-variant-east-asian:normal;fill:#000000;fill-opacity:1;stroke:none;stroke-width:0.5;stroke-miterlimit:4;stroke-dasharray:none;stroke-opacity:1;paint-order:normal"
         id="tspan2484">threshold</tspan></text>
    <path
       id="path887-6-1-6-2"
       style="opacity:0.774278;fill:#f0e442;fill-opacity:1;stroke:#000000;stroke-width:0.499999;stroke-miterlimit:4;stroke-dasharray:none;stroke-dashoffset:0"
       inkscape:transform-center-x="-1.6303268e-06"
       inkscape:transform-center-y="4.1712614e-06"
       d="m 377.83735,180.09622 -7.88842,5.62963 -7.74319,-5.46272 -0.0362,6.057 h -4.20077 l -7.43004,8.32972 7.43004,8.33024 h 4.10207 l -0.032,5.37745 h -4.46381 l -7.43003,8.33024 7.43003,8.32973 h 4.36459 l -0.03,5.25668 h -4.28026 l -7.43003,8.08566 7.35252,8.71388 19.91899,-0.0181 z"
       sodipodi:nodetypes="ccccccccccccccccccc" />
    <text
       xml:space="preserve"
       style="font-style:normal;font-variant:normal;font-weight:normal;font-stretch:normal;font-size:9.87778px;line-height:1.25;font-family:'PT Mono';-inkscape-font-specification:'PT Mono, Normal';font-variant-ligatures:normal;font-variant-caps:normal;font-variant-numeric:normal;font-variant-east-asian:normal;word-spacing:0px;mix-blend-mode:normal;fill:#000000;fill-opacity:1;stroke:none;stroke-width:0.5;stroke-miterlimit:4;stroke-dasharray:none;stroke-opacity:1;paint-order:normal"
       x="380.16678"
       y="198.17647"
       id="text1695-4-7-8-3"><tspan
         sodipodi:role="line"
         x="380.16678"
         y="198.17647"
         style="font-style:normal;font-variant:normal;font-weight:normal;font-stretch:normal;font-size:9.87778px;font-family:'PT Mono';-inkscape-font-specification:'PT Mono, Normal';font-variant-ligatures:normal;font-variant-caps:normal;font-variant-numeric:normal;font-variant-east-asian:normal;fill:#000000;fill-opacity:1;stroke:none;stroke-width:0.5;stroke-miterlimit:4;stroke-dasharray:none;stroke-opacity:1;paint-order:normal"
         id="tspan2188-5-9-6">Statements</tspan></text>
    <text
       xml:space="preserve"
       style="font-size:6.35px;line-height:1.25;font-family:'PT Mono';-inkscape-font-specification:'PT Mono, Normal';word-spacing:0px;stroke-width:0.5;stroke-miterlimit:4;stroke-dasharray:none"
       x="373.05789"
       y="98.435699"
       id="text3307"><tspan
         sodipodi:role="line"
         x="373.05789"
         y="98.435699"
         style="text-align:center;writing-mode:lr-tb;text-anchor:middle;stroke-width:0.5;stroke-miterlimit:4;stroke-dasharray:none"
         id="tspan2961">Hash</tspan><tspan
         sodipodi:role="line"
         x="373.05789"
         y="106.3732"
         style="text-align:center;writing-mode:lr-tb;text-anchor:middle;stroke-width:0.5;stroke-miterlimit:4;stroke-dasharray:none"
         id="tspan1263">Comparison</tspan><tspan
         sodipodi:role="line"
         x="373.05789"
         y="114.3107"
         style="text-align:center;writing-mode:lr-tb;text-anchor:middle;stroke-width:0.5;stroke-miterlimit:4;stroke-dasharray:none"
         id="tspan1265">Results</tspan></text>
    <text
       xml:space="preserve"
       style="font-style:normal;font-variant:normal;font-weight:normal;font-stretch:normal;font-size:5.64444px;line-height:1.25;font-family:'PT Mono';-inkscape-font-specification:'PT Mono, Normal';font-variant-ligatures:normal;font-variant-caps:normal;font-variant-numeric:normal;font-variant-east-asian:normal;word-spacing:0px;stroke-width:0.5;stroke-miterlimit:4;stroke-dasharray:none"
       x="302.46469"
       y="192.64139"
       id="text3311"><tspan
         sodipodi:role="line"
         id="tspan3309"
         x="302.46469"
         y="192.64139"
         style="font-style:normal;font-variant:normal;font-weight:normal;font-stretch:normal;font-size:5.64444px;font-family:'PT Mono';-inkscape-font-specification:'PT Mono, Normal';font-variant-ligatures:normal;font-variant-caps:normal;font-variant-numeric:normal;font-variant-east-asian:normal;stroke-width:0.5;stroke-miterlimit:4;stroke-dasharray:none">Search</tspan><tspan
         sodipodi:role="line"
         x="302.46469"
         y="199.69695"
         style="font-style:normal;font-variant:normal;font-weight:normal;font-stretch:normal;font-size:5.64444px;font-family:'PT Mono';-inkscape-font-specification:'PT Mono, Normal';font-variant-ligatures:normal;font-variant-caps:normal;font-variant-numeric:normal;font-variant-east-asian:normal;stroke-width:0.5;stroke-miterlimit:4;stroke-dasharray:none"
         id="tspan2451">Sequences</tspan></text>
    <text
       xml:space="preserve"
       style="font-style:normal;font-variant:normal;font-weight:normal;font-stretch:normal;font-size:5.64444px;line-height:1.25;font-family:'PT Mono';-inkscape-font-specification:'PT Mono, Normal';font-variant-ligatures:normal;font-variant-caps:normal;font-variant-numeric:normal;font-variant-east-asian:normal;word-spacing:0px;stroke-width:0.5;stroke-miterlimit:4;stroke-dasharray:none"
       x="249.99567"
       y="214.57201"
       id="text3315"><tspan
         sodipodi:role="line"
         id="tspan3313"
         x="249.99567"
         y="214.57201"
         style="font-style:normal;font-variant:normal;font-weight:normal;font-stretch:normal;font-size:5.64444px;font-family:'PT Mono';-inkscape-font-specification:'PT Mono, Normal';font-variant-ligatures:normal;font-variant-caps:normal;font-variant-numeric:normal;font-variant-east-asian:normal;stroke-width:0.5;stroke-miterlimit:4;stroke-dasharray:none">Search</tspan><tspan
         sodipodi:role="line"
         x="249.99567"
         y="221.62756"
         style="font-style:normal;font-variant:normal;font-weight:normal;font-stretch:normal;font-size:5.64444px;font-family:'PT Mono';-inkscape-font-specification:'PT Mono, Normal';font-variant-ligatures:normal;font-variant-caps:normal;font-variant-numeric:normal;font-variant-east-asian:normal;stroke-width:0.5;stroke-miterlimit:4;stroke-dasharray:none"
         id="tspan2453">Equal Blocks</tspan></text>
    <text
       xml:space="preserve"
       style="font-style:normal;font-variant:normal;font-weight:normal;font-stretch:normal;font-size:5.64444px;line-height:1.25;font-family:'PT Mono';-inkscape-font-specification:'PT Mono, Normal';font-variant-ligatures:normal;font-variant-caps:normal;font-variant-numeric:normal;font-variant-east-asian:normal;word-spacing:0px;stroke-width:0.5;stroke-miterlimit:4;stroke-dasharray:none"
       x="302.52115"
       y="236.48849"
       id="text3319"><tspan
         sodipodi:role="line"
         id="tspan3317"
         x="302.52115"
         y="236.48849"
         style="font-style:normal;font-variant:normal;font-weight:normal;font-stretch:normal;font-size:5.64444px;font-family:'PT Mono';-inkscape-font-specification:'PT Mono, Normal';font-variant-ligatures:normal;font-variant-caps:normal;font-variant-numeric:normal;font-variant-east-asian:normal;stroke-width:0.5;stroke-miterlimit:4;stroke-dasharray:none">Calculate</tspan><tspan
         sodipodi:role="line"
         x="302.52115"
         y="243.54405"
         style="font-style:normal;font-variant:normal;font-weight:normal;font-stretch:normal;font-size:5.64444px;font-family:'PT Mono';-inkscape-font-specification:'PT Mono, Normal';font-variant-ligatures:normal;font-variant-caps:normal;font-variant-numeric:normal;font-variant-east-asian:normal;stroke-width:0.5;stroke-miterlimit:4;stroke-dasharray:none"
         id="tspan2467">Similarity</tspan></text>
    <g
       id="g3077"
       transform="translate(26.295208,1.6324997)">
      <rect
         style="opacity:1;fill:#ffffff;fill-opacity:0.985507;stroke:#000000;stroke-width:0.382;stroke-linecap:round;stroke-miterlimit:4;stroke-dasharray:0.764, 0.764;stroke-dashoffset:0;stroke-opacity:1"
         id="rect2997"
         width="26.35074"
         height="17.143391"
         x="171.88708"
         y="121.10732" />
      <text
         xml:space="preserve"
         style="font-size:6.35px;line-height:1.25;font-family:'PT Mono';-inkscape-font-specification:'PT Mono, Normal';word-spacing:0px;opacity:1;fill:#000000;fill-opacity:1;stroke:none;stroke-width:0.132292;stroke-miterlimit:4;stroke-dasharray:0.132292, 0.132292;stroke-dashoffset:0;stroke-opacity:1"
         x="173.45468"
         y="127.91689"
         id="text3303"><tspan
           sodipodi:role="line"
           x="173.45468"
           y="127.91689"
           style="fill:#000000;fill-opacity:1;stroke:none;stroke-width:0.132292;stroke-miterlimit:4;stroke-dasharray:0.132292, 0.132292;stroke-dashoffset:0;stroke-opacity:1"
           id="tspan2985">Pre-</tspan><tspan
           sodipodi:role="line"
           x="173.45468"
           y="135.85439"
           style="fill:#000000;fill-opacity:1;stroke:none;stroke-width:0.132292;stroke-miterlimit:4;stroke-dasharray:0.132292, 0.132292;stroke-dashoffset:0;stroke-opacity:1"
           id="tspan2989">Filter</tspan></text>
    </g>
    <g
       id="g3083"
       transform="translate(30.205354,1.1682491)">
      <rect
         style="opacity:1;fill:#ffffff;fill-opacity:0.985507;stroke:#000000;stroke-width:0.382;stroke-linecap:round;stroke-miterlimit:4;stroke-dasharray:0.764, 0.764;stroke-dashoffset:0;stroke-opacity:1"
         id="rect2997-1"
         width="26.35074"
         height="17.143391"
         x="205.9404"
         y="66.265343" />
      <text
         xml:space="preserve"
         style="font-size:6.35px;line-height:1.25;font-family:'PT Mono';-inkscape-font-specification:'PT Mono, Normal';word-spacing:0px;opacity:1;fill:#000000;fill-opacity:1;stroke:none;stroke-width:0.132292;stroke-miterlimit:4;stroke-dasharray:0.132292, 0.132292;stroke-dashoffset:0;stroke-opacity:1"
         x="209.48558"
         y="73.074913"
         id="text3303-5"><tspan
           sodipodi:role="line"
           x="209.48558"
           y="73.074913"
           style="fill:#000000;fill-opacity:1;stroke:none;stroke-width:0.132292;stroke-miterlimit:4;stroke-dasharray:0.132292, 0.132292;stroke-dashoffset:0;stroke-opacity:1"
           id="tspan2989-8">Parse</tspan><tspan
           sodipodi:role="line"
           x="209.48558"
           y="81.012413"
           style="fill:#000000;fill-opacity:1;stroke:none;stroke-width:0.132292;stroke-miterlimit:4;stroke-dasharray:0.132292, 0.132292;stroke-dashoffset:0;stroke-opacity:1"
           id="tspan3061">Files</tspan></text>
    </g>
    <g
       id="g1236"
       transform="translate(20.521297)">
      <g
         id="g1259">
        <rect
           style="fill:#ffffff;fill-opacity:0.985507;stroke:#000000;stroke-width:0.382;stroke-linecap:round;stroke-miterlimit:4;stroke-dasharray:0.764, 0.764;stroke-dashoffset:0;stroke-opacity:1"
           id="rect2997-3"
           width="46.780514"
           height="21.836716"
           x="246.57207"
           y="122.73983" />
        <text
           xml:space="preserve"
           style="font-size:6.35px;line-height:1.25;font-family:'PT Mono';-inkscape-font-specification:'PT Mono, Normal';word-spacing:0px;fill:#000000;fill-opacity:1;stroke:none;stroke-width:0.132292;stroke-miterlimit:4;stroke-dasharray:0.132292, 0.132292;stroke-dashoffset:0;stroke-opacity:1"
           x="249.0677"
           y="131.30234"
           id="text3303-0"><tspan
             sodipodi:role="line"
             x="249.0677"
             y="131.30234"
             style="fill:#000000;fill-opacity:1;stroke:none;stroke-width:0.132292;stroke-miterlimit:4;stroke-dasharray:0.132292, 0.132292;stroke-dashoffset:0;stroke-opacity:1"
             id="tspan2989-4">Filter</tspan><tspan
             sodipodi:role="line"
             x="249.0677"
             y="139.23984"
             style="fill:#000000;fill-opacity:1;stroke:none;stroke-width:0.132292;stroke-miterlimit:4;stroke-dasharray:0.132292, 0.132292;stroke-dashoffset:0;stroke-opacity:1"
             id="tspan1230">Comparisons</tspan></text>
      </g>
    </g>
    <g
       id="g3102"
       transform="translate(27.524329)">
      <rect
         style="opacity:1;fill:#ffffff;fill-opacity:0.985507;stroke:#000000;stroke-width:0.382;stroke-linecap:round;stroke-miterlimit:4;stroke-dasharray:0.764, 0.764;stroke-dashoffset:0;stroke-opacity:1"
         id="rect2997-4"
         width="57.021011"
         height="18.324808"
         x="272.41223"
         y="66.252174" />
      <text
         xml:space="preserve"
         style="font-style:normal;font-variant:normal;font-weight:normal;font-stretch:normal;font-size:6.35px;line-height:1.25;font-family:'PT Mono';-inkscape-font-specification:'PT Mono, Normal';font-variant-ligatures:normal;font-variant-caps:normal;font-variant-numeric:normal;font-variant-east-asian:normal;word-spacing:0px;opacity:1;fill:#000000;fill-opacity:1;stroke:none;stroke-width:0.132292;stroke-miterlimit:4;stroke-dasharray:0.132292, 0.132292;stroke-dashoffset:0;stroke-opacity:1"
         x="274.36392"
         y="73.627052"
         id="text3303-4"><tspan
           sodipodi:role="line"
           x="274.36392"
           y="73.627052"
           style="font-style:normal;font-variant:normal;font-weight:normal;font-stretch:normal;font-size:6.35px;font-family:'PT Mono';-inkscape-font-specification:'PT Mono, Normal';font-variant-ligatures:normal;font-variant-caps:normal;font-variant-numeric:normal;font-variant-east-asian:normal;fill:#000000;fill-opacity:1;stroke:none;stroke-width:0.132292;stroke-miterlimit:4;stroke-dasharray:0.132292, 0.132292;stroke-dashoffset:0;stroke-opacity:1"
           id="tspan3067">Tree</tspan><tspan
           sodipodi:role="line"
           x="274.36392"
           y="81.564552"
           style="font-style:normal;font-variant:normal;font-weight:normal;font-stretch:normal;font-size:6.35px;font-family:'PT Mono';-inkscape-font-specification:'PT Mono, Normal';font-variant-ligatures:normal;font-variant-caps:normal;font-variant-numeric:normal;font-variant-east-asian:normal;fill:#000000;fill-opacity:1;stroke:none;stroke-width:0.132292;stroke-miterlimit:4;stroke-dasharray:0.132292, 0.132292;stroke-dashoffset:0;stroke-opacity:1"
           id="tspan3071">Generalization</tspan></text>
    </g>
    <g
       id="g1620"
       transform="translate(7.7156279,42.767931)">
      <path
         id="rect3333"
         style="fill:#000000;fill-opacity:0.0376811;stroke:#000000;stroke-width:0.5;stroke-linecap:round;stroke-miterlimit:4;stroke-dasharray:none;stroke-dashoffset:0;stroke-opacity:1"
         d="m 161.58941,148.07798 4.27192,-4.45176 h 10.72525 v 17.86232 H 161.5549 Z"
         sodipodi:nodetypes="cccccc" />
      <path
         id="rect3333-5"
         style="fill:#000000;fill-opacity:0.0376811;stroke:#000000;stroke-width:0.5;stroke-linecap:round;stroke-miterlimit:4;stroke-dasharray:none;stroke-dashoffset:0;stroke-opacity:1"
         d="m 161.58941,170.00859 4.27192,-4.45176 h 10.72525 v 17.86232 H 161.5549 Z"
         sodipodi:nodetypes="cccccc" />
      <path
         id="rect3333-3"
         style="fill:#000000;fill-opacity:0.0376811;stroke:#000000;stroke-width:0.5;stroke-linecap:round;stroke-miterlimit:4;stroke-dasharray:none;stroke-dashoffset:0;stroke-opacity:1"
         d="m 161.58941,191.93919 4.27192,-4.45176 h 10.72525 v 17.86232 H 161.5549 Z"
         sodipodi:nodetypes="cccccc" />
      <path
         id="rect3333-5-8"
         style="fill:#000000;fill-opacity:0.0376811;stroke:#000000;stroke-width:0.5;stroke-linecap:round;stroke-miterlimit:4;stroke-dasharray:none;stroke-dashoffset:0;stroke-opacity:1"
         d="m 102.39576,164.09695 9.90974,-10.32692 h 24.87979 v 41.43592 h -34.86958 z"
         sodipodi:nodetypes="cccccc" />
      <path
         style="fill:none;stroke:#000000;stroke-width:0.265;stroke-linecap:butt;stroke-linejoin:miter;stroke-miterlimit:4;stroke-dasharray:none;stroke-opacity:1;marker-end:url(#marker2506)"
         d="M 159.80887,197.85185 139.2135,180.47757"
         id="path2486" />
      <path
         style="fill:none;stroke:#000000;stroke-width:0.265;stroke-linecap:butt;stroke-linejoin:miter;stroke-miterlimit:4;stroke-dasharray:none;stroke-opacity:1;marker-end:url(#marker2496)"
         d="M 159.91221,174.66106 H 139.31684"
         id="path2490" />
      <path
         style="fill:none;stroke:#000000;stroke-width:0.264999;stroke-linecap:butt;stroke-linejoin:miter;stroke-miterlimit:4;stroke-dasharray:none;stroke-opacity:1;marker-end:url(#marker2506-5)"
         d="M 159.80887,151.47027 139.2135,168.84455"
         id="path2486-1" />
      <text
         xml:space="preserve"
         style="font-size:6.35px;line-height:1.25;font-family:'PT Mono';-inkscape-font-specification:'PT Mono, Normal';word-spacing:0px;stroke-width:0.264583"
         x="104.22764"
         y="203.60504"
         id="text3124"><tspan
           sodipodi:role="line"
           id="tspan3122"
           x="104.22764"
           y="203.60504"
           style="stroke-width:0.264583">Finished</tspan><tspan
           sodipodi:role="line"
           x="104.22764"
           y="211.54254"
           style="stroke-width:0.264583"
           id="tspan3126">Report</tspan></text>
    </g>
    <g
       id="g1710"
       transform="translate(25.041568)">
      <path
         id="path887-6-1-6-3-8-9-4-9"
         style="opacity:0.774278;fill:#f0e442;fill-opacity:1;stroke:#000000;stroke-width:0.499999;stroke-miterlimit:4;stroke-dasharray:none;stroke-dashoffset:0"
         inkscape:transform-center-x="6.8824768e-06"
         d="m 170.15636,186.39415 h 50.1112 l -7.96431,8.33004 7.96431,8.33004 h -50.1112 l -7.43016,-8.33004 z"
         sodipodi:nodetypes="ccccccc"
         inkscape:transform-center-y="2.8365121e-06" />
      <text
         xml:space="preserve"
         style="font-style:normal;font-variant:normal;font-weight:normal;font-stretch:normal;font-size:5.64444px;line-height:1.25;font-family:'PT Mono';-inkscape-font-specification:'PT Mono, Normal';font-variant-ligatures:normal;font-variant-caps:normal;font-variant-numeric:normal;font-variant-east-asian:normal;word-spacing:0px;mix-blend-mode:normal;fill:#000000;fill-opacity:1;stroke:none;stroke-width:0.499999;stroke-miterlimit:4;stroke-dasharray:none;stroke-opacity:1;paint-order:normal"
         x="166.06479"
         y="196.68564"
         id="text1695-4-7-8-3-4-9"><tspan
           sodipodi:role="line"
           x="166.06479"
           y="196.68564"
           style="font-style:normal;font-variant:normal;font-weight:normal;font-stretch:normal;font-size:5.64444px;font-family:'PT Mono';-inkscape-font-specification:'PT Mono, Normal';font-variant-ligatures:normal;font-variant-caps:normal;font-variant-numeric:normal;font-variant-east-asian:normal;fill:#000000;fill-opacity:1;stroke:none;stroke-width:0.499999;stroke-miterlimit:4;stroke-dasharray:none;stroke-opacity:1;paint-order:normal"
           id="tspan2482-7">Modifications</tspan></text>
    </g>
    <g
       id="g1705"
       transform="translate(25.836993)">
      <path
         id="path887-6-1-6-3-8-9-4"
         style="opacity:0.774278;fill:#f0e442;fill-opacity:1;stroke:#000000;stroke-width:0.499999;stroke-miterlimit:4;stroke-dasharray:none;stroke-dashoffset:0"
         inkscape:transform-center-x="6.8824768e-06"
         d="m 169.36094,208.32476 h 50.1112 l -7.96432,8.33004 7.96432,8.33004 h -50.1112 l -7.43017,-8.33004 z"
         sodipodi:nodetypes="ccccccc"
         inkscape:transform-center-y="2.8365121e-06" />
      <text
         xml:space="preserve"
         style="font-style:normal;font-variant:normal;font-weight:normal;font-stretch:normal;font-size:5.64444px;line-height:1.25;font-family:'PT Mono';-inkscape-font-specification:'PT Mono, Normal';font-variant-ligatures:normal;font-variant-caps:normal;font-variant-numeric:normal;font-variant-east-asian:normal;word-spacing:0px;mix-blend-mode:normal;fill:#000000;fill-opacity:1;stroke:none;stroke-width:0.499999;stroke-miterlimit:4;stroke-dasharray:none;stroke-opacity:1;paint-order:normal"
         x="166.06479"
         y="218.61624"
         id="text1695-4-7-8-3-4-9-7"><tspan
           sodipodi:role="line"
           x="166.06479"
           y="218.61624"
           style="font-style:normal;font-variant:normal;font-weight:normal;font-stretch:normal;font-size:5.64444px;font-family:'PT Mono';-inkscape-font-specification:'PT Mono, Normal';font-variant-ligatures:normal;font-variant-caps:normal;font-variant-numeric:normal;font-variant-east-asian:normal;fill:#000000;fill-opacity:1;stroke:none;stroke-width:0.499999;stroke-miterlimit:4;stroke-dasharray:none;stroke-opacity:1;paint-order:normal"
           id="tspan2482-7-1">Modifications</tspan></text>
    </g>
  </g>
</svg>
